<svg xmlns="http://www.w3.org/2000/svg" width="32" height="32" viewBox="0 0 32 32">
  <defs>
    <linearGradient id="linearGradient-1" x1="50%" x2="50%" y1="0%" y2="100%">
      <stop offset="0%" stop-color="#B3441B"/>
      <stop offset="50.313%" stop-color="#4D4D71"/>
      <stop offset="100%"/>
    </linearGradient>
  </defs>
  <g fill="none" fill-rule="evenodd" class="daedalus-stone-32">
    <g class="daedalus" transform="translate(6 6)">
      <g class="entities">
        <g class="group">
          <rect width="2" height="2" fill="#CB0B00" class="rectangle"/>
          <rect width="2" height="2" y="2" fill="#FF3800" class="rectangle-copy-10"/>
          <rect width="2" height="2" y="4" fill="#FF3800" class="rectangle-copy-20"/>
          <rect width="2" height="2" y="6" fill="#FF3800" class="rectangle-copy-30"/>
          <rect width="2" height="2" x="8" fill="#FF3800" class="rectangle-copy-4"/>
          <rect width="2" height="2" x="8" y="2" fill="#FF3800" class="rectangle-copy-11"/>
          <rect width="2" height="2" x="8" y="4" fill="#3B0704" class="rectangle-copy-21"/>
          <rect width="2" height="2" x="4" fill="#FF3800" class="rectangle-copy-2"/>
          <rect width="2" height="2" x="4" y="2" fill="#FF8500" class="glow"/>
          <rect width="2" height="2" x="4" y="4" fill="#FFCA61" class="rectangle-copy-22"/>
          <rect width="2" height="2" x="4" y="6" fill="#FF8500" class="rectangle-copy-32"/>
          <rect width="2" height="2" x="4" y="8" fill="#FF3800" class="rectangle-copy-42"/>
          <rect width="2" height="2" x="12" fill="#FF3800" class="rectangle-copy-5"/>
          <rect width="2" height="2" x="12" y="2" fill="#FF3800" class="rectangle-copy-13"/>
          <rect width="2" height="2" x="12" y="4" fill="#FFCA61" class="rectangle-copy-23"/>
          <rect width="2" height="2" x="12" y="6" fill="#FF3800" class="rectangle-copy-33"/>
          <rect width="2" height="2" x="12" y="8" fill="#FF3800" class="rectangle-copy-43"/>
          <rect width="2" height="2" x="16" fill="#FF3800" class="rectangle-copy-8"/>
          <rect width="2" height="2" x="16" y="2" fill="#FF3800" class="rectangle-copy-14"/>
          <rect width="2" height="2" x="16" y="4" fill="#FF8500" class="rectangle-copy-24"/>
          <rect width="2" height="2" x="16" y="6" fill="#FFCA61" class="rectangle-copy-34"/>
          <rect width="2" height="2" x="16" y="8" fill="#FF3800" class="rectangle-copy-44"/>
          <rect width="2" height="2" x="16" y="10" fill="#FF3800" class="rectangle-copy-54"/>
          <rect width="2" height="2" x="16" y="12" fill="#FF3800" class="rectangle-copy-64"/>
          <rect width="2" height="2" x="2" fill="#FF3800" class="rectangle-copy"/>
          <rect width="2" height="2" x="2" y="2" fill="#FF3800" class="rectangle-copy-15"/>
          <rect width="2" height="2" x="2" y="4" fill="#FF8500" class="rectangle-copy-25"/>
          <rect width="2" height="2" x="2" y="8" fill="#12100B" class="rectangle-copy-45"/>
          <rect width="2" height="2" x="10" fill="#CB0B00" class="rectangle-copy-6"/>
          <rect width="2" height="2" x="10" y="2" fill="#FF3800" class="rectangle-copy-16"/>
          <rect width="2" height="2" x="10" y="4" fill="#FF8500" class="rectangle-copy-26"/>
          <rect width="2" height="2" x="10" y="6" fill="#FF3800" class="rectangle-copy-36"/>
          <rect width="2" height="2" x="10" y="8" fill="#FF3800" class="rectangle-copy-46"/>
          <rect width="2" height="2" x="6" fill="#CB0B00" class="rectangle-copy-3"/>
          <rect width="2" height="2" x="6" y="2" fill="#FF3800" class="rectangle-copy-17"/>
          <rect width="2" height="2" x="6" y="4" fill="#FF3800" class="rectangle-copy-27"/>
          <rect width="2" height="2" x="6" y="6" fill="#FF3800" class="rectangle-copy-37"/>
          <rect width="2" height="2" x="14" fill="#FF3800" class="rectangle-copy-7"/>
          <rect width="2" height="2" x="14" y="2" fill="#FF8500" class="rectangle-copy-18"/>
          <rect width="2" height="2" x="14" y="4" fill="#FF3800" class="rectangle-copy-28"/>
          <rect width="2" height="2" x="14" y="6" fill="#FFCA61" class="rectangle-copy-38"/>
          <rect width="2" height="2" x="14" y="8" fill="#FF8500" class="rectangle-copy-48"/>
          <rect width="2" height="2" x="18" fill="#CB0B00" class="rectangle-copy-9"/>
          <rect width="2" height="2" x="18" y="2" fill="#FF3800" class="rectangle-copy-19"/>
          <rect width="2" height="2" x="18" y="4" fill="#FF3800" class="rectangle-copy-29"/>
          <rect width="2" height="2" x="18" y="6" fill="#FF3800" class="rectangle-copy-39"/>
          <rect width="2" height="2" x="18" y="8" fill="#3B0704" class="rectangle-copy-49"/>
        </g>
        <rect width="2" height="2" y="8" fill="#3B0704" class="rectangle-copy-40"/>
        <rect width="2" height="2" y="10" fill="#110C0A" class="rectangle-copy-50"/>
        <rect width="2" height="2" y="12" fill="#110C0A" class="rectangle-copy-60"/>
        <rect width="2" height="2" y="14" fill="#110C0A" class="rectangle-copy-70"/>
        <rect width="2" height="2" y="16" fill="#110C0A" class="rectangle-copy-80"/>
        <rect width="2" height="2" y="18" fill="#0F0202" class="rectangle-copy-90"/>
        <rect width="2" height="2" x="8" y="6" fill="#12100B" class="rectangle-copy-31"/>
        <rect width="2" height="2" x="8" y="8" fill="#12100B" class="rectangle-copy-41"/>
        <rect width="2" height="2" x="8" y="10" fill="#0F0202" class="rectangle-copy-51"/>
        <rect width="2" height="2" x="8" y="12" fill="#12100B" class="rectangle-copy-61"/>
        <rect width="2" height="2" x="8" y="14" fill="#12100B" class="rectangle-copy-71"/>
        <rect width="2" height="2" x="8" y="16" fill="#12100B" class="rectangle-copy-81"/>
        <rect width="2" height="2" x="8" y="18" fill="#110C0A" class="rectangle-copy-91"/>
        <rect width="2" height="2" x="4" y="10" fill="#12100B" class="rectangle-copy-52"/>
        <rect width="2" height="2" x="4" y="12" fill="#0F0202" class="rectangle-copy-62"/>
        <rect width="2" height="2" x="4" y="14" fill="#12100B" class="rectangle-copy-72"/>
        <rect width="2" height="2" x="4" y="16" fill="#12100B" class="rectangle-copy-82"/>
        <rect width="2" height="2" x="4" y="18" fill="#110C0A" class="rectangle-copy-92"/>
        <rect width="2" height="2" x="12" y="10" fill="#12100B" class="rectangle-copy-53"/>
        <rect width="2" height="2" x="12" y="12" fill="#12100B" class="rectangle-copy-63"/>
        <rect width="2" height="2" x="12" y="14" fill="#12100B" class="rectangle-copy-73"/>
        <rect width="2" height="2" x="12" y="16" fill="#12100B" class="rectangle-copy-83"/>
        <rect width="2" height="2" x="12" y="18" fill="#110C0A" class="rectangle-copy-93"/>
        <rect width="2" height="2" x="16" y="14" fill="#0F0202" class="rectangle-copy-74"/>
        <rect width="2" height="2" x="16" y="16" fill="#12100B" class="rectangle-copy-84"/>
        <rect width="2" height="2" x="16" y="18" fill="#110C0A" class="rectangle-copy-94"/>
        <rect width="2" height="2" x="2" y="6" fill="#3B0704" class="rectangle-copy-35"/>
        <rect width="2" height="2" x="2" y="10" fill="#12100B" class="rectangle-copy-55"/>
        <rect width="2" height="2" x="2" y="12" fill="#12100B" class="rectangle-copy-65"/>
        <rect width="2" height="2" x="2" y="14" fill="#12100B" class="rectangle-copy-75"/>
        <rect width="2" height="2" x="2" y="16" fill="#12100B" class="rectangle-copy-85"/>
        <rect width="2" height="2" x="2" y="18" fill="#110C0A" class="rectangle-copy-95"/>
        <rect width="2" height="2" x="10" y="10" fill="#12100B" class="rectangle-copy-56"/>
        <rect width="2" height="2" x="10" y="12" fill="#0F0202" class="rectangle-copy-66"/>
        <rect width="2" height="2" x="10" y="14" fill="#12100B" class="rectangle-copy-76"/>
        <rect width="2" height="2" x="10" y="16" fill="#12100B" class="rectangle-copy-86"/>
        <rect width="2" height="2" x="10" y="18" fill="#110C0A" class="rectangle-copy-96"/>
        <rect width="2" height="2" x="6" y="8" fill="#12100B" class="rectangle-copy-47"/>
        <rect width="2" height="2" x="6" y="10" fill="#12100B" class="rectangle-copy-57"/>
        <rect width="2" height="2" x="6" y="12" fill="#2C261C" class="rectangle-copy-67"/>
        <rect width="2" height="2" x="6" y="14" fill="#12100B" class="rectangle-copy-77"/>
        <rect width="2" height="2" x="6" y="16" fill="#12100B" class="rectangle-copy-87"/>
        <rect width="2" height="2" x="6" y="18" fill="#110C0A" class="rectangle-copy-97"/>
        <rect width="2" height="2" x="14" y="10" fill="#12100B" class="rectangle-copy-58"/>
        <rect width="2" height="2" x="14" y="12" fill="#12100B" class="rectangle-copy-68"/>
        <rect width="2" height="2" x="14" y="14" fill="#12100B" class="rectangle-copy-78"/>
        <rect width="2" height="2" x="14" y="16" fill="#12100B" class="rectangle-copy-88"/>
        <rect width="2" height="2" x="14" y="18" fill="#110C0A" class="rectangle-copy-98"/>
        <rect width="2" height="2" x="18" y="10" fill="#110C0A" class="rectangle-copy-59"/>
        <rect width="2" height="2" x="18" y="12" fill="#110C0A" class="rectangle-copy-69"/>
        <rect width="2" height="2" x="18" y="14" fill="#110C0A" class="rectangle-copy-79"/>
        <rect width="2" height="2" x="18" y="16" fill="#12100B" class="rectangle-copy-89"/>
        <rect width="2" height="2" x="18" y="18" fill="#0F0202" class="rectangle-copy-99"/>
      </g>
    </g>
    <rect width="22" height="22" x="5" y="5" stroke="url(#linearGradient-1)" stroke-width="2" class="rectangle" opacity=".095"/>
  </g>
</svg>
